Backtesting with strand
…
The security reference specifies static information about each security in the backtest. Security reference data must include at least the following columns:

id containing a unique security identifier.

symbol for reporting.

One column for each category used in an exposure constraint.

Below is a listing of a few rows and columns from the sample_secref data set included with the package:

data(sample_secref)

sample_secref %>%
  select("id", "symbol", "category_1")
#> # A tibble: 500 x 3
#>   id    symbol category_1
#>   <chr> <chr>  <chr>     
#> 1 101   DW     A         
#> 2 102   DX     B         
#> 3 103   DY     E         
#> 4 104   DZ     B         
#> # … with 496 more rows
…
The /simulator/input_data section in sample.yaml indicates that, like security reference data, alpha and factor inputs will be supplied to the simulation as an object:

simulator:
  input_data:
    type: object

We will be using the sample_inputs data set included with the package as the alpha and factor input for our simulation:

data(sample_inputs)

sample_inputs %>%
  filter(date %in% as.Date("2019-01-04")) %>%
  select("date", "id", "average_volume", "alpha_1", "factor_1",  "factor_2")
#> # A tibble: 500 x 6
#>   date       id    average_volume alpha_1 factor_1 factor_2
#>   <date>     <chr>          <dbl>   <dbl>    <dbl>    <dbl>
#> 1 2019-01-04 101           944976  1.62     -0.258    0.222
#> 2 2019-01-04 102           309933 -0.0733   -1.19     0.114
#> 3 2019-01-04 103           649724 -0.734     0.596    1.64 
#> 4 2019-01-04 104           967517 -0.211    -1.15     0.124
#> # … with 496 more rows
…
    columns:
      close_price: price_unadj

indicates that there is a column price_unadj in the data that should be treated by the system as the required close_price column.

We will be using the sample_pricing data set included with the package as the pricing data for our simulation. Below are a few rows of this dataset:

data(sample_pricing)

sample_pricing %>%
  filter(date %in% as.Date("2019-01-04")) %>%
  select("date", "id", "price_unadj", "prior_close_unadj", "adjustment_ratio",
         "volume", "dividend_unadj", "distribution_unadj")
#> # A tibble: 500 x 8
#>   date       id    price_unadj prior_close_unadj adjustment_ratio volume
#>   <date>     <chr>       <dbl>             <dbl>            <dbl>  <dbl>
#> 1 2019-01-04 101         23.4              23.4                 1 945024
#> 2 2019-01-04 102         10.3              10.4                 1 309915
#> 3 2019-01-04 103         39.0              39.0                 1 649683
#> 4 2019-01-04 104          7.27              7.32                1 967529
#>   dividend_unadj distribution_unadj
#>            <dbl>              <dbl>
#> 1             NA                 NA
#> 2             NA                 NA
#> 3             NA                 NA
#> 4             NA                 NA
#> # … with 496 more rows
…
